<svg xmlns="http://www.w3.org/2000/svg" width="26.969" height="19.09" viewBox="0 0 26.969 19.09">
  <defs>
    <style>
      .cls-1 {
        fill: #424242;
        fill-rule: evenodd;
      }
    </style>
  </defs>
  <path class="cls-1" d="M989.82,1469.14h0m2.583,0.81,20.814,0.05a2.751,2.751,0,0,0,2.75-2.73l0.03-13.48a2.7,2.7,0,0,0-.8-1.93,2.732,2.732,0,0,0-1.94-.81L991.8,1451a2.75,2.75,0,0,0-2.751,2.73l0,1.66h0l-0.027,11.17C988.677,1470.08,992.406,1469.95,992.406,1469.95Zm20.814-1.2-21.459-.06a1.465,1.465,0,0,1-1.045-.43l0-.01a1.462,1.462,0,0,1-.432-1.04l0.027-11.19,20.613,0.05a0.634,0.634,0,0,0,.63-0.63,0.64,0.64,0,0,0-.63-0.63l-20.61-.05,0-1.03a1.465,1.465,0,0,1,.439-1.04,1.487,1.487,0,0,1,1.049-.44l21.459,0.06a1.468,1.468,0,0,1,1.48,1.48l-0.01,4.8-20.609-.05a0.627,0.627,0,0,0-.448,1.07,0.64,0.64,0,0,0,.445.18l20.612,0.05-0.02,7.43A1.485,1.485,0,0,1,1013.22,1468.75Zm-12.61-5.81a0.632,0.632,0,0,0-.623-0.63l-7.009-.01a0.628,0.628,0,0,0-.631.62,0.62,0.62,0,0,0,.628.63l7.008,0.02A0.627,0.627,0,0,0,1000.61,1462.94Zm-4.764,1.87h-2.874a0.627,0.627,0,0,0-.631.62,0.651,0.651,0,0,0,.183.45,0.64,0.64,0,0,0,.445.18l2.874,0.01A0.63,0.63,0,1,0,995.846,1464.81Zm2.646,0.01h-0.378a0.629,0.629,0,0,0-.632.62,0.622,0.622,0,0,0,.629.63h0.377A0.625,0.625,0,1,0,998.492,1464.82Zm14.168-1.85a0.62,0.62,0,0,0-.18-0.44,0.636,0.636,0,0,0-.45-0.19l-3.78-.01a0.631,0.631,0,0,0-.44.19,0.6,0.6,0,0,0-.19.44v2.51a0.628,0.628,0,0,0,.18.44,0.6,0.6,0,0,0,.45.19l3.77,0.01a0.642,0.642,0,0,0,.64-0.63v-2.51Zm-3.78,1.87v-1.25l2.52,0.01v1.25Zm3.67-8.95a0.628,0.628,0,0,0,.44.18h0.38a0.613,0.613,0,0,0,.63-0.62,0.627,0.627,0,0,0-.63-0.63H1013a0.627,0.627,0,0,0-.63.63A0.553,0.553,0,0,0,1012.55,1455.89Zm-20.507,2.64h-0.378a0.629,0.629,0,0,0-.631.63,0.61,0.61,0,0,0,.183.44,0.7,0.7,0,0,0,.445.19h0.378A0.63,0.63,0,0,0,992.043,1458.53Z" transform="translate(-989.031 -1451)"/>
</svg>
