<svg xmlns="http://www.w3.org/2000/svg" width="25" height="28" viewBox="0 0 25 28">
  <metadata><?xpacket begin="﻿" id="W5M0MpCehiHzreSzNTczkc9d"?>
<x:xmpmeta xmlns:x="adobe:ns:meta/" x:xmptk="Adobe XMP Core 5.6-c140 79.160451, 2017/05/06-01:08:21        ">
   <rdf:RDF xmlns:rdf="http://www.w3.org/1999/02/22-rdf-syntax-ns#">
      <rdf:Description rdf:about=""/>
   </rdf:RDF>
</x:xmpmeta>
                                                                                                    
                                                                                                    
                                                                                                    
                                                                                                    
                                                                                                    
                                                                                                    
                                                                                                    
                                                                                                    
                                                                                                    
                                                                                                    
                                                                                                    
                                                                                                    
                                                                                                    
                                                                                                    
                                                                                                    
                                                                                                    
                                                                                                    
                                                                                                    
                                                                                                    
                                                                                                    
                           
<?xpacket end="w"?></metadata>
<defs>
    <style>
      .cls-1 {
        fill: #424242;
        fill-rule: evenodd;
      }
    </style>
  </defs>
  <path class="cls-1" d="M440.439,1267.21h-3.368a4.079,4.079,0,0,0,1.351-2.55,3.017,3.017,0,0,0-.169-1.52c-0.648-1.57-2.741-2.46-4.766-2.03-0.016,0-.033.01-0.049,0.01-1.2.36-2.482,1.57-3.822,3.57-0.455.69-.837,1.34-1.116,1.85-0.279-.51-0.661-1.16-1.117-1.85-1.339-2-2.625-3.21-3.821-3.57-0.017,0-.033-0.01-0.049-0.01a4.84,4.84,0,0,0-3.013.31,0.546,0.546,0,0,0-.27.73,0.562,0.562,0,0,0,.746.27,3.749,3.749,0,0,1,2.276-.24c1.624,0.51,3.425,3.33,4.342,5.03h-4.756a3.183,3.183,0,0,1-2.889-1.79,0.559,0.559,0,0,0-.744-0.27,0.546,0.546,0,0,0-.274.73,4.174,4.174,0,0,0,1,1.33h-3.369a0.552,0.552,0,0,0-.561.55v5.65a0.558,0.558,0,0,0,.561.55h0.621v14.49a0.558,0.558,0,0,0,.56.55h21.515a0.558,0.558,0,0,0,.561-0.55v-14.49h0.621a0.558,0.558,0,0,0,.561-0.55v-5.65A0.552,0.552,0,0,0,440.439,1267.21Zm-6.691-5.03a3.1,3.1,0,0,1,3.466,1.37,1.968,1.968,0,0,1,.094.98,3.121,3.121,0,0,1-3.146,2.68h-4.756C430.322,1265.51,432.122,1262.69,433.748,1262.18Zm-16.627,10.68v-4.55h6.829v4.55h-6.829Zm13.7,15.04H418.3v-13.94h6.751v10.1a0.561,0.561,0,0,0,1.121,0v-10.1h4.649v13.94Zm1.1-15.04h-6.856v-4.55h6.856v4.55Zm6.769,15.04h-6.751v-13.94h6.75v13.94h0Zm1.181-15.04H433.05v-4.55h6.828v4.55Zm-13.7,13.39a0.563,0.563,0,1,1-.563-0.55A0.561,0.561,0,0,1,426.176,1286.25Zm-6.343-22.75a0.563,0.563,0,0,1-1.126,0A0.563,0.563,0,0,1,419.833,1263.5Z" transform="translate(-416 -1261)"/>
</svg>
