<svg xmlns="http://www.w3.org/2000/svg" width="25" height="28" viewBox="0 0 25 28">
  <metadata><?xpacket begin="﻿" id="W5M0MpCehiHzreSzNTczkc9d"?>
<x:xmpmeta xmlns:x="adobe:ns:meta/" x:xmptk="Adobe XMP Core 5.6-c140 79.160451, 2017/05/06-01:08:21        ">
   <rdf:RDF xmlns:rdf="http://www.w3.org/1999/02/22-rdf-syntax-ns#">
      <rdf:Description rdf:about=""/>
   </rdf:RDF>
</x:xmpmeta>
                                                                                                    
                                                                                                    
                                                                                                    
                                                                                                    
                                                                                                    
                                                                                                    
                                                                                                    
                                                                                                    
                                                                                                    
                                                                                                    
                                                                                                    
                                                                                                    
                                                                                                    
                                                                                                    
                                                                                                    
                                                                                                    
                                                                                                    
                                                                                                    
                                                                                                    
                                                                                                    
                           
<?xpacket end="w"?></metadata>
<defs>
    <style>
      .cls-1 {
        fill: #424242;
        fill-rule: evenodd;
      }
    </style>
  </defs>
  <path class="cls-1" d="M434.478,1328.66a0.54,0.54,0,0,0-.543.54,0.544,0.544,0,1,0,1.087,0A0.541,0.541,0,0,0,434.478,1328.66Zm1.338-1.77-2.583-.87-0.927-1.86a6.032,6.032,0,0,0,1.611-3.17l0.116-.7h0.989a1.64,1.64,0,0,0,1.63-1.64v-3.45a8.152,8.152,0,1,0-16.3,0v3.45a1.631,1.631,0,0,0,1.087,1.54v0.65a1.64,1.64,0,0,0,1.63,1.64h0.477a6.083,6.083,0,0,0,.912,1.42c0.077,0.09.157,0.17,0.24,0.26l-0.927,1.86-2.584.87a8.06,8.06,0,0,0-5.183,7.56,0.549,0.549,0,0,0,.543.55h23.913a0.549,0.549,0,0,0,.544-0.55A8.06,8.06,0,0,0,435.816,1326.89Zm-0.251-8.24a0.55,0.55,0,0,1-.543.55h-0.83c0.138-1.08.23-2.23,0.267-3.36,0-.03,0-0.06,0-0.09h1.1v2.9Zm-13.587.55a0.55,0.55,0,0,1-.543-0.55v-2.9h1.1c0,0.06,0,.11.006,0.17v0.01h0c0.038,1.1.129,2.21,0.264,3.27h-0.83Zm1.087,2.18a0.54,0.54,0,0,1-.543-0.54v-0.55h0.445l0.116,0.7c0.022,0.13.049,0.26,0.08,0.39h-0.1Zm-0.542-6.72h-1.068a7.062,7.062,0,0,1,14.09,0h-1.068a5.522,5.522,0,0,0-5.491-5.47h-0.972A5.522,5.522,0,0,0,422.523,1314.66Zm5.49-4.38h0.973a4.436,4.436,0,0,1,4.405,4.45c0,0.18,0,.33,0,0.46v0.01l-0.68-.1a8.728,8.728,0,0,1-4.91-2.47,0.552,0.552,0,0,0-.384-0.16,4.9,4.9,0,0,0-3.78,1.8A4.427,4.427,0,0,1,428.013,1310.28Zm-3.723,11.1a31.459,31.459,0,0,1-.652-5.3l0.731-.99a3.8,3.8,0,0,1,2.829-1.52,9.828,9.828,0,0,0,5.355,2.61l0.8,0.12c-0.054,1.14-.163,2.29-0.32,3.34h0c-0.05.34-.089,0.56-0.189,1.17a4.641,4.641,0,0,1-3.277,3.73,4.292,4.292,0,0,1-2.136,0,4.408,4.408,0,0,1-2.664-2.06h1.108a1.638,1.638,0,0,0,1.537,1.09H428.5a1.64,1.64,0,0,0,0-3.28h-1.087a1.634,1.634,0,0,0-1.538,1.09H424.29Zm3.077,4.27a5.4,5.4,0,0,0,1.133.12,5.314,5.314,0,0,0,.889-0.08l-0.961,1.03Zm0.314,1.86-1.724,1.84a21.469,21.469,0,0,1-1.216-2.84l0.647-1.31Zm3.839-2.49,0.739,1.49a21.608,21.608,0,0,1-1.217,2.84l-1.845-1.86Zm-4.65-3.09a0.549,0.549,0,0,1,.543-0.55H428.5a0.55,0.55,0,0,1,0,1.1h-1.087A0.549,0.549,0,0,1,426.87,1321.93Zm-9.761,11.98a6.892,6.892,0,0,1,4.418-5.98l2.288-.77a21.842,21.842,0,0,0,1.547,3.37c0,0.01,0,.01,0,0.01h0a21.665,21.665,0,0,0,1.488,2.29l0.668,1.08H417.109Zm11.391-.49-0.737-1.19a0.107,0.107,0,0,0-.027-0.04,21.127,21.127,0,0,1-1.224-1.84l1.938-2.06,2.042,2.05a20.312,20.312,0,0,1-1.228,1.85C429.237,1332.22,429.275,1332.17,428.5,1333.42Zm0.979,0.49,0.668-1.08a22.343,22.343,0,0,0,1.5-2.31,0.07,0.07,0,0,0,.008-0.01h0a22.026,22.026,0,0,0,1.531-3.35l2.288,0.77a6.892,6.892,0,0,1,4.418,5.98H429.479Zm8.779-2.22a5.487,5.487,0,0,0-1.539-1.88,0.544,0.544,0,0,0-.762.1,0.552,0.552,0,0,0,.1.77,4.425,4.425,0,0,1,1.228,1.5,0.549,0.549,0,0,0,.729.25A0.557,0.557,0,0,0,438.258,1331.69Z" transform="translate(-416 -1307)"/>
</svg>
