<svg xmlns="http://www.w3.org/2000/svg" width="27" height="27" viewBox="0 0 27 27">
  <metadata><?xpacket begin="﻿" id="W5M0MpCehiHzreSzNTczkc9d"?>
<x:xmpmeta xmlns:x="adobe:ns:meta/" x:xmptk="Adobe XMP Core 5.6-c140 79.160451, 2017/05/06-01:08:21        ">
   <rdf:RDF xmlns:rdf="http://www.w3.org/1999/02/22-rdf-syntax-ns#">
      <rdf:Description rdf:about=""/>
   </rdf:RDF>
</x:xmpmeta>
                                                                                                    
                                                                                                    
                                                                                                    
                                                                                                    
                                                                                                    
                                                                                                    
                                                                                                    
                                                                                                    
                                                                                                    
                                                                                                    
                                                                                                    
                                                                                                    
                                                                                                    
                                                                                                    
                                                                                                    
                                                                                                    
                                                                                                    
                                                                                                    
                                                                                                    
                                                                                                    
                           
<?xpacket end="w"?></metadata>
<defs>
    <style>
      .cls-1 {
        fill: #424242;
        fill-rule: evenodd;
      }
    </style>
  </defs>
  <path class="cls-1" d="M424.281,1461.03a0.525,0.525,0,1,0,.528.52A0.522,0.522,0,0,0,424.281,1461.03Zm1.055,9.81h-3.164a0.522,0.522,0,0,0-.527.52,0.53,0.53,0,0,0,.527.53h3.164a0.53,0.53,0,0,0,.527-0.53A0.522,0.522,0,0,0,425.336,1470.84Zm15.082-17.2H432.35v-4a2.639,2.639,0,0,0-2.637-2.64H417.637a2.639,2.639,0,0,0-2.637,2.64v21.72a2.639,2.639,0,0,0,2.637,2.64h12.076a2.639,2.639,0,0,0,2.637-2.64v-4h8.068a1.586,1.586,0,0,0,1.582-1.59v-10.54A1.586,1.586,0,0,0,440.418,1453.64Zm-9.123,17.72a1.577,1.577,0,0,1-1.582,1.58H417.637a1.577,1.577,0,0,1-1.582-1.58v-21.72a1.585,1.585,0,0,1,1.582-1.59h12.076a1.586,1.586,0,0,1,1.582,1.59v4H430.24v-2.79a0.53,0.53,0,0,0-.527-0.53H417.637a0.53,0.53,0,0,0-.528.53v18.25a0.522,0.522,0,0,0,.528.52h12.076a0.522,0.522,0,0,0,.527-0.52v-1.74H431.3v4Zm-8.068-4h5.958v1.21H418.164v-17.19h11.021v2.26h-5.958a1.585,1.585,0,0,0-1.582,1.59v10.54A1.585,1.585,0,0,0,423.227,1467.36Zm17.718-1.59a0.53,0.53,0,0,1-.527.53H423.227a0.531,0.531,0,0,1-.528-0.53v-6.85h18.246v6.85Zm0-7.91H422.7v-1.05h18.246v1.05Zm0-2.11H422.7v-0.52a0.531,0.531,0,0,1,.528-0.53h17.191a0.53,0.53,0,0,1,.527.53v0.52Zm-3.322,4.75a2.1,2.1,0,0,1-3.164,0A4.015,4.015,0,1,0,437.623,1460.5Zm-3.164,3.16a1.055,1.055,0,1,1,1.055-1.05A1.053,1.053,0,0,1,434.459,1463.66Zm3.164,0a1.055,1.055,0,1,1,1.055-1.05A1.053,1.053,0,0,1,437.623,1463.66Zm-6.855-2.63h-4.377a0.525,0.525,0,1,0,0,1.05h4.377A0.525,0.525,0,1,0,430.768,1461.03Zm0,2.11h-6.487a0.525,0.525,0,1,0,0,1.05h6.487A0.525,0.525,0,1,0,430.768,1463.14Z" transform="translate(-415 -1447)"/>
</svg>
