<svg xmlns="http://www.w3.org/2000/svg" width="28" height="30" viewBox="0 0 28 30">
  <metadata><?xpacket begin="﻿" id="W5M0MpCehiHzreSzNTczkc9d"?>
<x:xmpmeta xmlns:x="adobe:ns:meta/" x:xmptk="Adobe XMP Core 5.6-c140 79.160451, 2017/05/06-01:08:21        ">
   <rdf:RDF xmlns:rdf="http://www.w3.org/1999/02/22-rdf-syntax-ns#">
      <rdf:Description rdf:about=""/>
   </rdf:RDF>
</x:xmpmeta>
                                                                                                    
                                                                                                    
                                                                                                    
                                                                                                    
                                                                                                    
                                                                                                    
                                                                                                    
                                                                                                    
                                                                                                    
                                                                                                    
                                                                                                    
                                                                                                    
                                                                                                    
                                                                                                    
                                                                                                    
                                                                                                    
                                                                                                    
                                                                                                    
                                                                                                    
                                                                                                    
                           
<?xpacket end="w"?></metadata>
<defs>
    <style>
      .cls-1 {
        fill: #424242;
        fill-rule: evenodd;
      }
    </style>
  </defs>
  <path class="cls-1" d="M1014.51,1311.91h-3.47a0.59,0.59,0,1,0,0,1.18h3.47a1.287,1.287,0,0,1,1.3,1.28v6.69a1.4,1.4,0,0,1-1.4,1.39h-0.61v-4.33a2.484,2.484,0,0,0-2.49-2.46h-8.75v-1.78a0.593,0.593,0,0,0-.6-0.59,0.585,0.585,0,0,0-.59.59v1.78h-9.878a1.285,1.285,0,1,1,0-2.57h3.925a0.59,0.59,0,1,0,0-1.18h-3.925a2.483,2.483,0,0,0-2.492,2.46c0,0.04,0,.07,0,0.1s0,0.03,0,.05v18.02a2.477,2.477,0,0,0,2.492,2.46h23.018a2.484,2.484,0,0,0,2.49-2.46v-18.17A2.484,2.484,0,0,0,1014.51,1311.91Zm-1.9,20.63a1.3,1.3,0,0,1-1.28,1.29H991.492a1.3,1.3,0,0,1-1.306-1.29v-16.07a2.52,2.52,0,0,0,1.306.37h19.818a1.293,1.293,0,0,1,1.3,1.28v4.33h-5.34a3.635,3.635,0,1,0,0,7.27h5.34v2.82Zm3.2,0a1.3,1.3,0,0,1-1.3,1.29h-1.08a2.487,2.487,0,0,0,.37-1.29v-2.82h0.35a2.855,2.855,0,0,0,1.66-.53v3.35Zm0-5.64a1.645,1.645,0,0,1-1.66,1.64h-6.88a2.46,2.46,0,1,1,0-4.92h7.14a2.556,2.556,0,0,0,1.4-.41v3.69Zm-9.67-18.08a2.75,2.75,0,1,0,2.79,2.75A2.768,2.768,0,0,0,1006.14,1308.82Zm0,4.33a1.58,1.58,0,1,1,1.6-1.58A1.594,1.594,0,0,1,1006.14,1313.15Zm-5.75-8.15a2.755,2.755,0,1,0,2.79,2.75A2.769,2.769,0,0,0,1000.39,1305Zm0,4.33a1.58,1.58,0,1,1,1.6-1.58A1.593,1.593,0,0,1,1000.39,1309.33Zm10.12-3.35h-0.33v-0.34a0.6,0.6,0,0,0-1.19,0v0.34h-0.34a0.585,0.585,0,1,0,0,1.17h0.34v0.33a0.6,0.6,0,0,0,1.19,0v-0.33h0.33A0.585,0.585,0,1,0,1010.51,1305.98Zm-12.038,4.75a0.587,0.587,0,0,0-.594.58v2.38a0.594,0.594,0,0,0,1.187,0v-2.38A0.587,0.587,0,0,0,998.472,1310.73Zm9.578,15.01a0.589,0.589,0,0,0-.42-0.17,0.607,0.607,0,0,0-.42.17,0.589,0.589,0,0,0-.17.42,0.583,0.583,0,0,0,.17.41,0.607,0.607,0,0,0,.42.17,0.6,0.6,0,0,0,.6-0.58A0.6,0.6,0,0,0,1008.05,1325.74Zm-15.115-5.51a0.6,0.6,0,0,0-.593.59v4.82a0.593,0.593,0,0,0,1.186,0v-4.82A0.6,0.6,0,0,0,992.935,1320.23Zm0.419,7.02a0.593,0.593,0,0,0-1.012.42,0.587,0.587,0,0,0,.173.41,0.6,0.6,0,0,0,.839,0A0.582,0.582,0,0,0,993.354,1327.25Z" transform="translate(-989 -1305)"/>
</svg>
