<svg xmlns="http://www.w3.org/2000/svg" width="24" height="28" viewBox="0 0 24 28">
  <metadata><?xpacket begin="﻿" id="W5M0MpCehiHzreSzNTczkc9d"?>
<x:xmpmeta xmlns:x="adobe:ns:meta/" x:xmptk="Adobe XMP Core 5.6-c140 79.160451, 2017/05/06-01:08:21        ">
   <rdf:RDF xmlns:rdf="http://www.w3.org/1999/02/22-rdf-syntax-ns#">
      <rdf:Description rdf:about=""/>
   </rdf:RDF>
</x:xmpmeta>
                                                                                                    
                                                                                                    
                                                                                                    
                                                                                                    
                                                                                                    
                                                                                                    
                                                                                                    
                                                                                                    
                                                                                                    
                                                                                                    
                                                                                                    
                                                                                                    
                                                                                                    
                                                                                                    
                                                                                                    
                                                                                                    
                                                                                                    
                                                                                                    
                                                                                                    
                                                                                                    
                           
<?xpacket end="w"?></metadata>
<defs>
    <style>
      .cls-1 {
        fill: #424242;
        fill-rule: evenodd;
      }
    </style>
  </defs>
  <path class="cls-1" d="M1014.56,1363.83a46.537,46.537,0,0,1-11.26-4.75,0.587,0.587,0,0,0-.6,0,45.578,45.578,0,0,1-11.264,4.75,0.6,0.6,0,0,0-.436.57v6.02a17.268,17.268,0,0,0,5.284,12.65c2.6,2.53,5.616,3.93,6.716,3.93s4.12-1.4,6.72-3.93a17.271,17.271,0,0,0,5.28-12.65v-6.02A0.6,0.6,0,0,0,1014.56,1363.83Zm-0.74,6.59a16.113,16.113,0,0,1-4.93,11.81c-2.55,2.49-5.28,3.59-5.89,3.59s-3.335-1.1-5.887-3.59a16.117,16.117,0,0,1-4.929-11.81v-5.57a47.01,47.01,0,0,0,10.816-4.58,48.047,48.047,0,0,0,10.82,4.58v5.57Zm-16.067-5.64a0.594,0.594,0,0,0-.768-0.33c-1.058.42-2.143,0.8-3.226,1.14a0.578,0.578,0,0,0-.415.56v2.27a0.592,0.592,0,0,0,1.184,0v-1.84c0.972-.31,1.942-0.66,2.891-1.03A0.593,0.593,0,0,0,997.753,1364.78Zm1.124,0.12a0.668,0.668,0,0,0,.238-0.05l0.011-.01a0.584,0.584,0,0,0,.3-0.77,0.6,0.6,0,0,0-.781-0.31l-0.01.01a0.58,0.58,0,0,0-.3.77A0.6,0.6,0,0,0,998.877,1364.9Zm11.173,13.09a0.6,0.6,0,0,0-.82.17,13.623,13.623,0,0,1-1.7,2.12,14.251,14.251,0,0,1-1.7,1.5,0.591,0.591,0,0,0-.11.83,0.611,0.611,0,0,0,.47.23,0.578,0.578,0,0,0,.36-0.12,15.7,15.7,0,0,0,1.83-1.62,15.139,15.139,0,0,0,1.84-2.29A0.585,0.585,0,0,0,1010.05,1377.99Zm-5.59,4.71-0.03.02a0.594,0.594,0,0,0-.22.81,0.586,0.586,0,0,0,.51.29,0.542,0.542,0,0,0,.3-0.08l0.04-.02A0.592,0.592,0,0,0,1004.46,1382.7Zm-5.5-10.9a1.921,1.921,0,0,0-2.722,2.71l3.5,3.47a1.934,1.934,0,0,0,2.722,0l7.3-7.26a1.92,1.92,0,0,0-1.36-3.27,1.874,1.874,0,0,0-1.36.57l-5.94,5.9Zm8.9-2.95a0.736,0.736,0,0,1,1.05,0,0.73,0.73,0,0,1,0,1.04l-7.3,7.26a0.725,0.725,0,0,1-1.04,0l-3.5-3.48a0.738,0.738,0,1,1,1.048-1.04l2.552,2.54a0.6,0.6,0,0,0,.84,0Z" transform="translate(-991 -1359)"/>
</svg>
