<svg xmlns="http://www.w3.org/2000/svg" width="31" height="25" viewBox="0 0 31 25">
  <metadata><?xpacket begin="﻿" id="W5M0MpCehiHzreSzNTczkc9d"?>
<x:xmpmeta xmlns:x="adobe:ns:meta/" x:xmptk="Adobe XMP Core 5.6-c140 79.160451, 2017/05/06-01:08:21        ">
   <rdf:RDF xmlns:rdf="http://www.w3.org/1999/02/22-rdf-syntax-ns#">
      <rdf:Description rdf:about=""/>
   </rdf:RDF>
</x:xmpmeta>
                                                                                                    
                                                                                                    
                                                                                                    
                                                                                                    
                                                                                                    
                                                                                                    
                                                                                                    
                                                                                                    
                                                                                                    
                                                                                                    
                                                                                                    
                                                                                                    
                                                                                                    
                                                                                                    
                                                                                                    
                                                                                                    
                                                                                                    
                                                                                                    
                                                                                                    
                                                                                                    
                           
<?xpacket end="w"?></metadata>
<defs>
    <style>
      .cls-1 {
        fill: #424242;
        fill-rule: evenodd;
      }
    </style>
  </defs>
  <path class="cls-1" d="M440.311,1359.67a12.647,12.647,0,0,0-16.068-1.45,0.6,0.6,0,0,0-.152.84,0.609,0.609,0,0,0,.842.15,11.355,11.355,0,0,1,3.739-1.68,8.491,8.491,0,0,0-.685,1,16.9,16.9,0,0,0-1.864,5.9,0.605,0.605,0,0,0,1.2.17c0.074-.49.163-0.98,0.264-1.44h7.646a24.9,24.9,0,0,1,.534,4.74H434.07a0.6,0.6,0,0,0-.606.6,0.6,0.6,0,0,0,.606.6h1.695a25.009,25.009,0,0,1-.534,4.75h-3a0.6,0.6,0,1,0,0,1.2h2.695a14.241,14.241,0,0,1-.567,1.63c-0.767,1.84-1.75,2.95-2.728,3.1h-0.45c-1.709-.25-3.328-3.41-3.907-7.69a0.605,0.605,0,0,0-1.2.16,17.456,17.456,0,0,0,1.85,6.12,8.1,8.1,0,0,0,.731,1.09,11.374,11.374,0,0,1-4.045-1.89,0.6,0.6,0,0,0-.847.12,0.6,0.6,0,0,0,.124.84,12.614,12.614,0,0,0,7.516,2.47h0q0.43,0,.863-0.03a12.629,12.629,0,0,0,8.041-3.63A12.425,12.425,0,0,0,440.311,1359.67Zm2.462,8.23h-5.8a26.545,26.545,0,0,0-.51-4.74h4.971A11.1,11.1,0,0,1,442.773,1367.9Zm-14.886-5.95a12.624,12.624,0,0,1,1.149-2.82c0.722-1.24,1.564-1.92,2.37-1.92,1.052,0,2.129,1.13,2.956,3.11a15.726,15.726,0,0,1,.567,1.63h-7.042Zm7.594-2.09a9.266,9.266,0,0,0-1.339-2.32,11.381,11.381,0,0,1,5.313,2.98,11.94,11.94,0,0,1,1.228,1.43h-4.5A17.235,17.235,0,0,0,435.481,1359.86Zm3.974,16.63a11.312,11.312,0,0,1-5.294,2.96,9.614,9.614,0,0,0,1.32-2.31,16.137,16.137,0,0,0,.7-2.09h4.5A11.294,11.294,0,0,1,439.455,1376.49Zm-2.988-2.64a26.558,26.558,0,0,0,.51-4.75h5.8a11.107,11.107,0,0,1-1.335,4.75h-4.971Zm-6.348.18a0.605,0.605,0,0,0-1.033.42,0.624,0.624,0,0,0,.177.43,0.624,0.624,0,0,0,.856,0,0.625,0.625,0,0,0,.178-0.43A0.585,0.585,0,0,0,430.119,1374.03Zm1.768-5.9a5.1,5.1,0,0,0-4.013-1.96h-2.2l-2.218-5.3a0.613,0.613,0,0,0-.559-0.37h-2.287a0.6,0.6,0,0,0-.605.6v5.07H417.8l-1.546-1.84a0.6,0.6,0,0,0-.465-0.22h-2.18a0.618,0.618,0,0,0-.523.3,0.6,0.6,0,0,0,0,.6l2,3.49-2,3.49a0.6,0.6,0,0,0,0,.6,0.617,0.617,0,0,0,.523.3h2.18a0.6,0.6,0,0,0,.465-0.22l1.547-1.84h2.209v5.07a0.6,0.6,0,0,0,.605.6H422.9a0.6,0.6,0,0,0,.559-0.37l2.218-5.3h2.2a5.1,5.1,0,0,0,4.013-1.96A0.609,0.609,0,0,0,431.887,1368.13Zm-10.669-6.42H422.5l1.87,4.46h-3.147v-4.46h0Zm1.276,13.59h-1.276v-4.47h3.149Zm5.38-5.67H417.608a0.459,0.459,0,0,0-.117-0.01,0.616,0.616,0,0,0-.436.22l-1.552,1.84h-0.855l1.656-2.88a0.606,0.606,0,0,0,0-.6l-1.656-2.88H415.5l1.552,1.84a0.62,0.62,0,0,0,.437.22,0.463,0.463,0,0,0,.117-0.01h10.265A1.6,1.6,0,1,1,427.874,1369.63Zm-13.749-8.95a0.6,0.6,0,0,0-.856,0,0.6,0.6,0,0,0,0,.85,0.6,0.6,0,0,0,.856,0A0.6,0.6,0,0,0,414.125,1360.68Zm4.355-.18h-2.573a0.605,0.605,0,1,0,0,1.21h2.573A0.605,0.605,0,1,0,418.48,1360.5Zm-0.592,14.8h-3.737a0.6,0.6,0,1,0,0,1.2h3.737A0.6,0.6,0,1,0,417.888,1375.3Z" transform="translate(-413 -1356)"/>
</svg>
