<svg xmlns="http://www.w3.org/2000/svg" width="21" height="28" viewBox="0 0 21 28">
  <metadata><?xpacket begin="﻿" id="W5M0MpCehiHzreSzNTczkc9d"?>
<x:xmpmeta xmlns:x="adobe:ns:meta/" x:xmptk="Adobe XMP Core 5.6-c140 79.160451, 2017/05/06-01:08:21        ">
   <rdf:RDF xmlns:rdf="http://www.w3.org/1999/02/22-rdf-syntax-ns#">
      <rdf:Description rdf:about=""/>
   </rdf:RDF>
</x:xmpmeta>
                                                                                                    
                                                                                                    
                                                                                                    
                                                                                                    
                                                                                                    
                                                                                                    
                                                                                                    
                                                                                                    
                                                                                                    
                                                                                                    
                                                                                                    
                                                                                                    
                                                                                                    
                                                                                                    
                                                                                                    
                                                                                                    
                                                                                                    
                                                                                                    
                                                                                                    
                                                                                                    
                           
<?xpacket end="w"?></metadata>
<defs>
    <style>
      .cls-1 {
        fill: #424242;
        fill-rule: evenodd;
      }
    </style>
  </defs>
  <path class="cls-1" d="M1011.79,1416.77v-2.57a8.29,8.29,0,0,0-16.58,0v2.57a2.753,2.753,0,0,0-2.21,2.68v3.11a0.553,0.553,0,0,0,1.105,0v-3.11a1.654,1.654,0,0,1,1.658-1.64h15.477a1.65,1.65,0,0,1,1.65,1.64v11.82a1.633,1.633,0,0,1-1.1,1.54v-3.29a0.555,0.555,0,0,0-1.11,0v3.39H995.763a1.654,1.654,0,0,1-1.658-1.64v-4.32a0.553,0.553,0,0,0-1.105,0v4.32a2.753,2.753,0,0,0,2.763,2.73h15.477a2.753,2.753,0,0,0,2.76-2.73v-11.82A2.752,2.752,0,0,0,1011.79,1416.77Zm-12.49-.05v-2.52a4.2,4.2,0,0,1,8.4,0v2.52h-8.4Zm9.51,0v-2.52a5.308,5.308,0,0,0-10.615,0v2.52h-1.879v-2.52a7.182,7.182,0,0,1,14.364,0v2.52h-1.87Zm-15.257,8.56a0.565,0.565,0,0,0,.39-0.16,0.577,0.577,0,0,0,.162-0.39,0.559,0.559,0,0,0-.162-0.39,0.557,0.557,0,0,0-.781,0,0.559,0.559,0,0,0-.162.39,0.577,0.577,0,0,0,.162.39A0.567,0.567,0,0,0,993.553,1425.28Zm9.947,5.77a1.658,1.658,0,0,0,1.66-1.64v-2.91a2.925,2.925,0,0,0,1.33-2.46,2.985,2.985,0,0,0-5.97,0,2.922,2.922,0,0,0,1.32,2.45v2.92A1.658,1.658,0,0,0,1003.5,1431.05Zm-1.87-7.01a1.88,1.88,0,1,1,2.73,1.66,0.541,0.541,0,0,0-.31.49v3.22a0.55,0.55,0,0,1-1.1,0v-3.23a0.546,0.546,0,0,0-.3-0.48A1.869,1.869,0,0,1,1001.63,1424.04Zm9.61,3.78a0.589,0.589,0,0,0,.39-0.16,0.552,0.552,0,0,0,.16-0.39,0.546,0.546,0,0,0-.55-0.54,0.564,0.564,0,0,0-.56.54,0.522,0.522,0,0,0,.17.39A0.552,0.552,0,0,0,1011.24,1427.82Z" transform="translate(-993 -1406)"/>
</svg>
